Exploring transcriptome-wide changes using PCA
…
We talk more about standardizing gene expression data in the gene clustering lesson.

Variance explained by PCs

Thr first important question to ask after we do a PCA is how many PCs we have and how much variance they explain.

We need to extract the variance explained by each PC from our sample_pca object. We could do this manually, using sample_pca$sdev^2, but instead we will use a function from the broom package which conveniently formats the data for plotting:

library(broom)

# PC variances (eigen values)
tidy(sample_pca, matrix = "pcs")

## # A tibble: 36 x 4
##       PC std.dev percent cumulative
##    <dbl>   <dbl>   <dbl>      <dbl>
##  1     1   18.7   0.388       0.388
##  2     2   12.1   0.163       0.552
##  3     3    8.76  0.0850      0.637
##  4     4    7.15  0.0567      0.693
##  5     5    6.99  0.0541      0.747
##  6     6    5.43  0.0326      0.780
##  7     7    5.20  0.0299      0.810
##  8     8    4.10  0.0186      0.828
##  9     9    3.79  0.0159      0.844
## 10    10    3.67  0.0149      0.859
## #  with 26 more rows
…
the genotype does not drive major changes in the transcriptome (but, again, it doesnt mean that no genes differ between the genotypes, just that they dont explain most of the variance captured by PC1 and PC2)

Exploring correlation between genes and PCs

Finally, to be able to interpret our PC-axis we need to ask the question of which genes have the most influence on each PC axis. This information is contained in the variable loadings of the PCA, within the rotation value of the prcomp object.

We have seen how to extract the variable loadings manually:

# extract values
sample_pca$rotation %>% 
  # convert to a tibble
  as_tibble(rownames = "gene")

## # A tibble: 6,011 x 37
##    gene       PC1      PC2      PC3      PC4      PC5      PC6      PC7
##    <chr>    <dbl>    <dbl>    <dbl>    <dbl>    <dbl>    <dbl>    <dbl>
##  1 SPAC  0.00653  0.0217  -0.0146   2.04e-2  0.00243 -0.00850  0.00546
##  2 SPAC  0.00915 -0.0134  -0.00984  2.24e-2 -0.00994  0.0142  -0.00219
##  3 SPAC  0.0125  -0.0153   0.00109 -2.17e-2  0.00303 -0.00454 -0.0264 
##  4 SPNC -0.00461  0.00571  0.00790 -2.29e-2  0.00604  0.0204  -0.00352
##  5 SPAC -0.00176 -0.00581 -0.0139  -2.42e-2  0.00252 -0.00346  0.0223 
##  6 SPAC  0.0342  -0.0227  -0.00138 -1.52e-2  0.0112  -0.00609 -0.00245
##  7 SPAC  0.0126   0.0223  -0.00249  8.72e-3  0.0388  -0.0166   0.00410
##  8 SPAC  0.0102   0.0182  -0.00752  1.84e-2  0.0636  -0.00837 -0.0220 
##  9 SPNC  0.0221  -0.0357   0.0146  -1.93e-2  0.0104   0.00874 -0.00480
## 10 SPAC -0.0159  -0.0270  -0.0168   8.82e-4 -0.0249  -0.0288  -0.0236 
## #  with 6,001 more rows, and 29 more variables: PC8 <dbl>, PC9 <dbl>,
## #   PC10 <dbl>, PC11 <dbl>, PC12 <dbl>, PC13 <dbl>, PC14 <dbl>,
## #   PC15 <dbl>, PC16 <dbl>, PC17 <dbl>, PC18 <dbl>, PC19 <dbl>,
## #   PC20 <dbl>, PC21 <dbl>, PC22 <dbl>, PC23 <dbl>, PC24 <dbl>,
## #   PC25 <dbl>, PC26 <dbl>, PC27 <dbl>, PC28 <dbl>, PC29 <dbl>,
## #   PC30 <dbl>, PC31 <dbl>, PC32 <dbl>, PC33 <dbl>, PC34 <dbl>,
## #   PC35 <dbl>, PC36 <dbl>

But, again, we can use the broom package, which instead returns a table in a long format:

# variable loadings (eigen vectors) for genes that were used as variables in PCA
tidy(sample_pca, matrix = "variables")

## # A tibble: 216,396 x 3
##    column         PC    value
##    <chr>       <dbl>    <dbl>
##  1 SPAC212.11      1  0.00653
##  2 SPAC212.09c     1  0.00915
##  3 SPAC212.04c     1  0.0125 
##  4 SPNCRNA.601     1 -0.00461
##  5 SPAC977.11      1 -0.00176
##  6 SPAC977.13c     1  0.0342 
##  7 SPAC977.15      1  0.0126 
##  8 SPAC977.16c     1  0.0102 
##  9 SPNCRNA.607     1  0.0221 
## 10 SPAC1F8.06      1 -0.0159 
## #  with 216,386 more rows
…
